<svg xmlns="http://www.w3.org/2000/svg" width="59.467" height="59.467" viewBox="0 0 59.467 59.467">
  <g id="moisturiser" opacity="0.5">
    <path id="Path_101" data-name="Path 101" d="M228.333,275.561l-1.15-1.537.572-.428a9.733,9.733,0,0,1,7.855-1.695l6.3,1.4a12.284,12.284,0,0,0,8.48-1.2l6.395-3.489a1.365,1.365,0,0,0,.713-1.2v-.128a1.37,1.37,0,0,0-1.368-1.368,1.391,1.391,0,0,0-.614.144l-8.289,4.146a4.824,4.824,0,0,1-2.144.506h-2.931a4.821,4.821,0,0,1-3.837-1.917l-1.726-2.3,1.534-1.15,1.727,2.3a2.892,2.892,0,0,0,2.3,1.15h2.931a2.9,2.9,0,0,0,1.288-.3l8.289-4.146a3.286,3.286,0,0,1,4.756,2.94v.128A3.286,3.286,0,0,1,257.7,270.3l-6.395,3.489a14.239,14.239,0,0,1-9.814,1.387l-6.295-1.4a7.8,7.8,0,0,0-6.291,1.356Zm0,0" transform="translate(-199.946 -232.349)" fill="#40a4a4"/>
    <path id="Path_102" data-name="Path 102" d="M233.514,248.44l-1.151-1.534,2.814-2.11a4.817,4.817,0,0,1,2.876-.959h6.395a.959.959,0,1,0,0-1.918h-9.927a9.816,9.816,0,0,0-6.686,2.632l-1.308-1.4A11.734,11.734,0,0,1,234.521,240h9.927a2.877,2.877,0,1,1,0,5.755h-6.395a2.887,2.887,0,0,0-1.725.576Zm0,0" transform="translate(-199.369 -211.225)" fill="#40a4a4"/>
    <path id="Path_103" data-name="Path 103" d="M318.95,83.183h-.472a6.478,6.478,0,0,1-5.9-9.158l3.9-8.59a2.45,2.45,0,0,1,4.459,0l3.9,8.59a6.413,6.413,0,0,1,.581,2.68A6.485,6.485,0,0,1,318.95,83.183Zm-.719-16.954-3.9,8.589a4.56,4.56,0,0,0,4.151,6.447h.472a4.56,4.56,0,0,0,4.151-6.447l-3.9-8.589A.554.554,0,0,0,318.231,66.229Zm0,0" transform="translate(-274.594 -56.327)" fill="#40a4a4"/>
    <path id="Path_104" data-name="Path 104" d="M22.06,200.284H6.714A6.723,6.723,0,0,1,0,193.57V166.714A6.722,6.722,0,0,1,6.714,160H22.06a6.722,6.722,0,0,1,6.714,6.714V193.57A6.723,6.723,0,0,1,22.06,200.284ZM6.714,161.918a4.8,4.8,0,0,0-4.8,4.8V193.57a4.8,4.8,0,0,0,4.8,4.8H22.06a4.8,4.8,0,0,0,4.8-4.8V166.714a4.8,4.8,0,0,0-4.8-4.8Zm0,0" transform="translate(0 -140.817)" fill="#40a4a4"/>
    <path id="Path_105" data-name="Path 105" d="M22.06,200.284H6.714A6.723,6.723,0,0,1,0,193.57V166.714A6.722,6.722,0,0,1,6.714,160H22.06a6.722,6.722,0,0,1,6.714,6.714V193.57A6.723,6.723,0,0,1,22.06,200.284ZM6.714,161.918a4.8,4.8,0,0,0-4.8,4.8V193.57a4.8,4.8,0,0,0,4.8,4.8H22.06a4.8,4.8,0,0,0,4.8-4.8V166.714a4.8,4.8,0,0,0-4.8-4.8Zm0,0" transform="translate(0 -140.817)" fill="#40a4a4"/>
    <path id="Path_106" data-name="Path 106" d="M65.265,118.714H63.346v-4.8H49.918v4.8H48V112H65.265Zm0,0" transform="translate(-42.245 -98.572)" fill="#40a4a4"/>
    <path id="Path_107" data-name="Path 107" d="M144,72h1.918v5.755H144Zm0,0" transform="translate(-126.735 -63.368)" fill="#40a4a4"/>
    <path id="Path_108" data-name="Path 108" d="M80,72h1.918v5.755H80Zm0,0" transform="translate(-70.409 -63.368)" fill="#40a4a4"/>
    <path id="Path_109" data-name="Path 109" d="M64.938,9.591H44.8A4.8,4.8,0,1,1,44.8,0h.329a4.765,4.765,0,0,1,3.392,1.4,8.245,8.245,0,0,0,5.871,2.433H62.06a2.881,2.881,0,0,1,2.877,2.877ZM44.8,1.918a2.877,2.877,0,1,0,0,5.755H63.019V6.714a.96.96,0,0,0-.959-.959H54.387A10.149,10.149,0,0,1,47.16,2.76a2.861,2.861,0,0,0-2.035-.842Zm0,0" transform="translate(-35.204)" fill="#40a4a4"/>
    <path id="Path_110" data-name="Path 110" d="M53.1,248.938H32V224H53.1Zm-19.183-1.918H51.183v-21.1H33.918Zm0,0" transform="translate(-28.163 -197.144)" fill="#40a4a4"/>
    <path id="Path_111" data-name="Path 111" d="M84.8,265.591a4.8,4.8,0,1,1,4.8-4.8A4.8,4.8,0,0,1,84.8,265.591Zm0-7.673a2.877,2.877,0,1,0,2.877,2.877A2.881,2.881,0,0,0,84.8,257.918Zm0,0" transform="translate(-70.409 -225.307)" fill="#40a4a4"/>
    <path id="Path_112" data-name="Path 112" d="M64,352H77.428v1.918H64Zm0,0" transform="translate(-56.327 -309.798)" fill="#40a4a4"/>
    <path id="Path_113" data-name="Path 113" d="M64,384H77.428v1.918H64Zm0,0" transform="translate(-56.327 -337.961)" fill="#40a4a4"/>
  </g>
</svg>
