<svg id="facebook-app-logo" xmlns="http://www.w3.org/2000/svg" width="23.721" height="23.721" viewBox="0 0 23.721 23.721">
  <path id="Path_1" data-name="Path 1" d="M22.411,0H1.309A1.309,1.309,0,0,0,0,1.31v21.1a1.31,1.31,0,0,0,1.309,1.31H12.67V14.536H9.579V10.955H12.67V8.315c0-3.063,1.871-4.732,4.6-4.732a25.639,25.639,0,0,1,2.762.141v3.2h-1.9c-1.486,0-1.773.707-1.773,1.743v2.285h3.546l-.464,3.58H16.366v9.187h6.044a1.311,1.311,0,0,0,1.31-1.309V1.309A1.309,1.309,0,0,0,22.411,0Z" transform="translate(0 -0.001)" fill="#fff"/>
</svg>
