<svg xmlns="http://www.w3.org/2000/svg" width="317.226" height="361.12" viewBox="0 0 317.226 361.12">
  <g id="test-tube" transform="translate(-58.344)" opacity="0.5">
    <path id="Path_161" data-name="Path 161" d="M115.48,480" transform="translate(-14.151 -118.88)" fill="#40a4a4"/>
    <path id="Path_162" data-name="Path 162" d="M305.11,2.344A108.082,108.082,0,0,0,273.253,79.25V90.861H261.645A108.764,108.764,0,0,0,152.88,199.623v11.611h-3.1a128.467,128.467,0,0,0-91.438,37.875l8.511,8.511A116.672,116.672,0,0,1,109.468,230.5l36.191,36.183a115.878,115.878,0,0,1-12.416,24.73l-30.27-30.267-8.508,8.511,31.478,31.477c-2.336,2.81-4.787,5.543-7.4,8.161l8.508,8.511a128.443,128.443,0,0,0,37.869-91.435v-3.1h11.611A108.762,108.762,0,0,0,285.29,114.51V102.9H296.9a108.035,108.035,0,0,0,76.906-31.857L365.3,62.531a96.25,96.25,0,0,1-39.721,24L289.607,50.567a95.234,95.234,0,0,1,9.739-21.392l35.845,35.848,8.511-8.511-37.387-37.4a99.4,99.4,0,0,1,7.306-8.258ZM152.879,226.371a118.061,118.061,0,0,1-3.291,27.228l-27.034-27.037a118.023,118.023,0,0,1,27.228-3.291h3.1Zm12.037-15.138V199.622q0-4.814.464-9.507l20.657,20.654q-4.712.458-9.51.464Zm35.513-3.083-32.441-32.439a95.24,95.24,0,0,1,8.728-22.4L208.8,185.4l8.511-8.511-33.943-33.946a98.521,98.521,0,0,1,9.868-11.711,96.215,96.215,0,0,1,35.277-22.414l38.813,38.81a95.6,95.6,0,0,1-10.418,20.71l-27.56-27.56-8.511,8.511L249.451,177.9c-1.475,1.7-2.933,3.4-4.54,5.008a96,96,0,0,1-44.482,25.247Zm72.824-93.642a97.9,97.9,0,0,1-2.081,19.928l-29.456-29.456a97.853,97.853,0,0,1,19.928-2.084h11.608Zm38.413-24.854a97.42,97.42,0,0,1-14.765,1.2H285.29V79.249a98.143,98.143,0,0,1,1.2-14.762Zm0,0" transform="translate(0 -0.58)" fill="#40a4a4"/>
    <path id="Path_163" data-name="Path 163" d="M184,0h12.037V12.037H184Zm0,0" transform="translate(-31.121)" fill="#40a4a4"/>
    <path id="Path_164" data-name="Path 164" d="M200,16h12.037V28.037H200Zm0,0" transform="translate(-35.083 -3.963)" fill="#40a4a4"/>
    <path id="Path_165" data-name="Path 165" d="M416,296h12.037v12.037H416Zm0,0" transform="translate(-88.579 -73.309)" fill="#40a4a4"/>
    <path id="Path_166" data-name="Path 166" d="M168,16h12.037V28.037H168Zm0,0" transform="translate(-27.158 -3.963)" fill="#40a4a4"/>
    <path id="Path_167" data-name="Path 167" d="M104,32h12.037V44.037H104Zm0,0" transform="translate(-11.307 -7.925)" fill="#40a4a4"/>
    <path id="Path_168" data-name="Path 168" d="M120,96h12.037v12.037H120Zm0,0" transform="translate(-15.27 -23.776)" fill="#40a4a4"/>
    <path id="Path_169" data-name="Path 169" d="M184,32h12.037V44.037H184Zm0,0" transform="translate(-31.121 -7.925)" fill="#40a4a4"/>
    <path id="Path_170" data-name="Path 170" d="M432,312h12.037v12.037H432Zm0,0" transform="translate(-92.542 -77.272)" fill="#40a4a4"/>
    <path id="Path_171" data-name="Path 171" d="M416,328h12.037v12.037H416Zm0,0" transform="translate(-88.579 -81.235)" fill="#40a4a4"/>
    <path id="Path_172" data-name="Path 172" d="M400,312h12.037v12.037H400Zm0,0" transform="translate(-84.616 -77.272)" fill="#40a4a4"/>
    <path id="Path_173" data-name="Path 173" d="M464,240h12.037v12.037H464Zm0,0" transform="translate(-100.467 -59.44)" fill="#40a4a4"/>
    <path id="Path_174" data-name="Path 174" d="M352,352h12.037v12.037H352Zm0,0" transform="translate(-72.729 -87.178)" fill="#40a4a4"/>
  </g>
</svg>
